^E:\FYP\EQUALIZATION\LOADIMAGE\IM.CPP
E:\FYP\EQUALIZATION\LOADIMAGE\X64\DEBUG\VC141.PDB
E:\FYP\EQUALIZATION\LOADIMAGE\X64\DEBUG\VC141.IDB
E:\FYP\EQUALIZATION\LOADIMAGE\X64\DEBUG\IM.OBJ
^E:\FYP\FINDING THE CENTER OF THE WINDOW\LOADIMAGE\IM.CPP
E:\FYP\FINDING THE CENTER OF THE WINDOW\LOADIMAGE\X64\DEBUG\VC141.PDB
E:\FYP\FINDING THE CENTER OF THE WINDOW\LOADIMAGE\X64\DEBUG\VC141.IDB
E:\FYP\FINDING THE CENTER OF THE WINDOW\LOADIMAGE\X64\DEBUG\IM.OBJ
