^E:\STUDENT DATA\144103MOPENCV\MATRIX STRUCTURE\LOADIMAGE\X64\DEBUG\IM.OBJ
/OUT:"E:\STUDENT DATA\144103MOPENCV\MATRIX STRUCTURE\X64\DEBUG\LOADIMAGE.EXE" /INCREMENTAL /NOLOGO OPENCV_CORE2413D.LIB OPENCV_HIGHGUI2413D.LIB OPENCV_IMGPROC2413D.LIB OPENCV_CALIB3D2413D.LIB OPENCV_ML2413D.LIB KERNEL32.LIB USER32.LIB GDI32.LIB WINSPOOL.LIB COMDLG32.LIB ADVAPI32.LIB SHELL32.LIB OLE32.LIB OLEAUT32.LIB UUID.LIB ODBC32.LIB ODBCCP32.LIB /MANIFEST /MANIFESTUAC:"level='asInvoker' uiAccess='false'" /manifest:embed /DEBUG /PDB:"E:\STUDENT DATA\144103MOPENCV\MATRIX STRUCTURE\X64\DEBUG\LOADIMAGE.PDB" /SUBSYSTEM:CONSOLE /TLBID:1 /DYNAMICBASE /NXCOMPAT /IMPLIB:"E:\STUDENT DATA\144103MOPENCV\MATRIX STRUCTURE\X64\DEBUG\LOADIMAGE.LIB" /MACHINE:X64 X64\DEBUG\IM.OBJ
^E:\STUDENT DATA\144022M - IMAGE PROCESSING\MATRIX STRUCTURE\LOADIMAGE\X64\DEBUG\IM.OBJ
/OUT:"E:\STUDENT DATA\144022M - IMAGE PROCESSING\MATRIX STRUCTURE\X64\DEBUG\LOADIMAGE.EXE" /INCREMENTAL /NOLOGO OPENCV_CORE2413D.LIB OPENCV_HIGHGUI2413D.LIB OPENCV_IMGPROC2413D.LIB OPENCV_CALIB3D2413D.LIB OPENCV_ML2413D.LIB KERNEL32.LIB USER32.LIB GDI32.LIB WINSPOOL.LIB COMDLG32.LIB ADVAPI32.LIB SHELL32.LIB OLE32.LIB OLEAUT32.LIB UUID.LIB ODBC32.LIB ODBCCP32.LIB /MANIFEST /MANIFESTUAC:"level='asInvoker' uiAccess='false'" /manifest:embed /DEBUG /PDB:"E:\STUDENT DATA\144022M - IMAGE PROCESSING\MATRIX STRUCTURE\X64\DEBUG\LOADIMAGE.PDB" /SUBSYSTEM:CONSOLE /TLBID:1 /DYNAMICBASE /NXCOMPAT /IMPLIB:"E:\STUDENT DATA\144022M - IMAGE PROCESSING\MATRIX STRUCTURE\X64\DEBUG\LOADIMAGE.LIB" /MACHINE:X64 X64\DEBUG\IM.OBJ
^E:\144022M - IMAGE PROCESSING\EQUALIZATION\LOADIMAGE\X64\DEBUG\IM.OBJ
/OUT:"E:\144022M - IMAGE PROCESSING\EQUALIZATION\X64\DEBUG\LOADIMAGE.EXE" /INCREMENTAL /NOLOGO OPENCV_WORLD341D.LIB KERNEL32.LIB USER32.LIB GDI32.LIB WINSPOOL.LIB COMDLG32.LIB ADVAPI32.LIB SHELL32.LIB OLE32.LIB OLEAUT32.LIB UUID.LIB ODBC32.LIB ODBCCP32.LIB /MANIFEST /MANIFESTUAC:"level='asInvoker' uiAccess='false'" /manifest:embed /DEBUG:FASTLINK /PDB:"E:\144022M - IMAGE PROCESSING\EQUALIZATION\X64\DEBUG\LOADIMAGE.PDB" /SUBSYSTEM:CONSOLE /TLBID:1 /DYNAMICBASE /NXCOMPAT /IMPLIB:"E:\144022M - IMAGE PROCESSING\EQUALIZATION\X64\DEBUG\LOADIMAGE.LIB" /MACHINE:X64 X64\DEBUG\IM.OBJ
^E:\FYP\EQUALIZATION\LOADIMAGE\X64\DEBUG\IM.OBJ
/OUT:"E:\FYP\EQUALIZATION\X64\DEBUG\LOADIMAGE.EXE" /INCREMENTAL /NOLOGO OPENCV_WORLD341D.LIB KERNEL32.LIB USER32.LIB GDI32.LIB WINSPOOL.LIB COMDLG32.LIB ADVAPI32.LIB SHELL32.LIB OLE32.LIB OLEAUT32.LIB UUID.LIB ODBC32.LIB ODBCCP32.LIB /MANIFEST /MANIFESTUAC:"level='asInvoker' uiAccess='false'" /manifest:embed /DEBUG:FASTLINK /PDB:"E:\FYP\EQUALIZATION\X64\DEBUG\LOADIMAGE.PDB" /SUBSYSTEM:CONSOLE /TLBID:1 /DYNAMICBASE /NXCOMPAT /IMPLIB:"E:\FYP\EQUALIZATION\X64\DEBUG\LOADIMAGE.LIB" /MACHINE:X64 X64\DEBUG\IM.OBJ
^E:\FYP\FINDING CENTER OF THE TSHIRT\LOADIMAGE\X64\DEBUG\IM.OBJ
/OUT:"E:\FYP\FINDING CENTER OF THE TSHIRT\X64\DEBUG\LOADIMAGE.EXE" /INCREMENTAL /NOLOGO OPENCV_WORLD341D.LIB KERNEL32.LIB USER32.LIB GDI32.LIB WINSPOOL.LIB COMDLG32.LIB ADVAPI32.LIB SHELL32.LIB OLE32.LIB OLEAUT32.LIB UUID.LIB ODBC32.LIB ODBCCP32.LIB /MANIFEST /MANIFESTUAC:"level='asInvoker' uiAccess='false'" /manifest:embed /DEBUG:FASTLINK /PDB:"E:\FYP\FINDING CENTER OF THE TSHIRT\X64\DEBUG\LOADIMAGE.PDB" /SUBSYSTEM:CONSOLE /TLBID:1 /DYNAMICBASE /NXCOMPAT /IMPLIB:"E:\FYP\FINDING CENTER OF THE TSHIRT\X64\DEBUG\LOADIMAGE.LIB" /MACHINE:X64 X64\DEBUG\IM.OBJ
