^E:\STUDENT DATA\144022M - IMAGE PROCESSING\CONTRASTSTRETCHING\LOADIMAGE\IM.CPP
E:\STUDENT DATA\144022M - IMAGE PROCESSING\CONTRASTSTRETCHING\LOADIMAGE\X64\DEBUG\VC140.PDB
E:\STUDENT DATA\144022M - IMAGE PROCESSING\CONTRASTSTRETCHING\LOADIMAGE\X64\DEBUG\VC140.IDB
E:\STUDENT DATA\144022M - IMAGE PROCESSING\CONTRASTSTRETCHING\LOADIMAGE\X64\DEBUG\IM.OBJ
^E:\144022M - IMAGE PROCESSING\CONTRASTSTRETCHING\LOADIMAGE\IM.CPP
E:\144022M - IMAGE PROCESSING\CONTRASTSTRETCHING\LOADIMAGE\X64\DEBUG\VC141.PDB
E:\144022M - IMAGE PROCESSING\CONTRASTSTRETCHING\LOADIMAGE\X64\DEBUG\VC141.IDB
E:\144022M - IMAGE PROCESSING\CONTRASTSTRETCHING\LOADIMAGE\X64\DEBUG\IM.OBJ
^E:\144022M - IMAGE PROCESSING\EQUALIZATION\LOADIMAGE\IM.CPP
E:\144022M - IMAGE PROCESSING\EQUALIZATION\LOADIMAGE\X64\DEBUG\VC141.PDB
E:\144022M - IMAGE PROCESSING\EQUALIZATION\LOADIMAGE\X64\DEBUG\VC141.IDB
E:\144022M - IMAGE PROCESSING\EQUALIZATION\LOADIMAGE\X64\DEBUG\IM.OBJ
