^E:\STUDENT DATA\144022M - IMAGE PROCESSING\DRAWGRAYHIS\LOADIMAGE\X64\DEBUG\IM.OBJ
E:\STUDENT DATA\144022M - IMAGE PROCESSING\DRAWGRAYHIS\X64\DEBUG\DRAWGRAYHIS.ILK
E:\STUDENT DATA\144022M - IMAGE PROCESSING\DRAWGRAYHIS\X64\DEBUG\DRAWGRAYHIS.EXE
E:\STUDENT DATA\144022M - IMAGE PROCESSING\DRAWGRAYHIS\X64\DEBUG\DRAWGRAYHIS.PDB
