^E:\STUDENT DATA\144103MOPENCV\MATRIX STRUCTURE\LOADIMAGE\IM.CPP
/c /IC:\OPENCV\BUILD\INCLUDE /IC:\OPENCV\BUILD\INCLUDE\OPENCV /IC:\OPENCV\BUILD\INCLUDE\OPENCV2 /ZI /nologo /W3 /WX- /Od /D _DEBUG /D _CONSOLE /D _UNICODE /D UNICODE /Gm /EHsc /RTC1 /MDd /GS /fp:precise /Zc:wchar_t /Zc:forScope /Zc:inline /Fo"X64\DEBUG\\" /Fd"X64\DEBUG\VC140.PDB" /Gd /TP E:\STUDENT DATA\144103MOPENCV\MATRIX STRUCTURE\LOADIMAGE\IM.CPP
^E:\STUDENT DATA\144022M - IMAGE PROCESSING\MATRIX STRUCTURE\LOADIMAGE\IM.CPP
/c /IC:\OPENCV\BUILD\INCLUDE /IC:\OPENCV\BUILD\INCLUDE\OPENCV /IC:\OPENCV\BUILD\INCLUDE\OPENCV2 /ZI /nologo /W3 /WX- /Od /D _DEBUG /D _CONSOLE /D _UNICODE /D UNICODE /Gm /EHsc /RTC1 /MDd /GS /fp:precise /Zc:wchar_t /Zc:forScope /Zc:inline /Fo"X64\DEBUG\\" /Fd"X64\DEBUG\VC140.PDB" /Gd /TP E:\STUDENT DATA\144022M - IMAGE PROCESSING\MATRIX STRUCTURE\LOADIMAGE\IM.CPP
^E:\144022M - IMAGE PROCESSING\EQUALIZATION\LOADIMAGE\IM.CPP
/c /IC:\OPENCV\BUILD\INCLUDE /IC:\OPENCV\BUILD\INCLUDE\OPENCV /IC:\OPENCV\BUILD\INCLUDE\OPENCV2 /ZI /nologo /W3 /WX- /diagnostics:classic /Od /D _DEBUG /D _CONSOLE /D _UNICODE /D UNICODE /Gm- /EHsc /RTC1 /MDd /GS /fp:precise /Zc:wchar_t /Zc:forScope /Zc:inline /Fo"X64\DEBUG\\" /Fd"X64\DEBUG\VC141.PDB" /Gd /TP /FC E:\144022M - IMAGE PROCESSING\EQUALIZATION\LOADIMAGE\IM.CPP
^E:\FYP\EQUALIZATION\LOADIMAGE\IM.CPP
/c /IC:\OPENCV\BUILD\INCLUDE /IC:\OPENCV\BUILD\INCLUDE\OPENCV /IC:\OPENCV\BUILD\INCLUDE\OPENCV2 /ZI /JMC /nologo /W3 /WX- /diagnostics:classic /Od /D _DEBUG /D _CONSOLE /D _UNICODE /D UNICODE /Gm- /EHsc /RTC1 /MDd /GS /fp:precise /Zc:wchar_t /Zc:forScope /Zc:inline /Fo"X64\DEBUG\\" /Fd"X64\DEBUG\VC141.PDB" /Gd /TP /FC E:\FYP\EQUALIZATION\LOADIMAGE\IM.CPP
^E:\FYP\FINDING THE CENTER OF THE WINDOW\LOADIMAGE\IM.CPP
/c /IC:\OPENCV\BUILD\INCLUDE /IC:\OPENCV\BUILD\INCLUDE\OPENCV /IC:\OPENCV\BUILD\INCLUDE\OPENCV2 /ZI /JMC /nologo /W3 /WX- /diagnostics:classic /Od /D _DEBUG /D _CONSOLE /D _UNICODE /D UNICODE /Gm- /EHsc /RTC1 /MDd /GS /fp:precise /Zc:wchar_t /Zc:forScope /Zc:inline /Fo"X64\DEBUG\\" /Fd"X64\DEBUG\VC141.PDB" /Gd /TP /FC E:\FYP\FINDING THE CENTER OF THE WINDOW\LOADIMAGE\IM.CPP
^E:\FYP\DESKEW\LOADIMAGE\IM.CPP
/c /IC:\OPENCV\BUILD\INCLUDE /IC:\OPENCV\BUILD\INCLUDE\OPENCV /IC:\OPENCV\BUILD\INCLUDE\OPENCV2 /ZI /JMC /nologo /W3 /WX- /diagnostics:classic /Od /D _DEBUG /D _CONSOLE /D _UNICODE /D UNICODE /Gm- /EHsc /RTC1 /MDd /GS /fp:precise /Zc:wchar_t /Zc:forScope /Zc:inline /Fo"X64\DEBUG\\" /Fd"X64\DEBUG\VC141.PDB" /Gd /TP /FC E:\FYP\DESKEW\LOADIMAGE\IM.CPP
