^E:\STUDENT DATA\144022M - IMAGE PROCESSING\GRAYHIS\LOADIMAGE\IM.CPP
E:\STUDENT DATA\144022M - IMAGE PROCESSING\GRAYHIS\LOADIMAGE\X64\DEBUG\VC140.PDB
E:\STUDENT DATA\144022M - IMAGE PROCESSING\GRAYHIS\LOADIMAGE\X64\DEBUG\VC140.IDB
E:\STUDENT DATA\144022M - IMAGE PROCESSING\GRAYHIS\LOADIMAGE\X64\DEBUG\IM.OBJ
