^E:\STUDENT DATA\144022M - IMAGE PROCESSING\GRAYHIS\LOADIMAGE\X64\DEBUG\IM.OBJ
E:\STUDENT DATA\144022M - IMAGE PROCESSING\GRAYHIS\X64\DEBUG\GRAYHIS.ILK
E:\STUDENT DATA\144022M - IMAGE PROCESSING\GRAYHIS\X64\DEBUG\GRAYHIS.EXE
E:\STUDENT DATA\144022M - IMAGE PROCESSING\GRAYHIS\X64\DEBUG\GRAYHIS.PDB
