^E:\STUDENT DATA\144022M - IMAGE PROCESSING\CONTRASTSTRETCHING\LOADIMAGE\X64\DEBUG\IM.OBJ
E:\STUDENT DATA\144022M - IMAGE PROCESSING\CONTRASTSTRETCHING\X64\DEBUG\CONTRASTSTRETCHING.ILK
E:\STUDENT DATA\144022M - IMAGE PROCESSING\CONTRASTSTRETCHING\X64\DEBUG\CONTRASTSTRETCHING.EXE
E:\STUDENT DATA\144022M - IMAGE PROCESSING\CONTRASTSTRETCHING\X64\DEBUG\CONTRASTSTRETCHING.PDB
^E:\144022M - IMAGE PROCESSING\CONTRASTSTRETCHING\LOADIMAGE\X64\DEBUG\IM.OBJ
E:\144022M - IMAGE PROCESSING\CONTRASTSTRETCHING\X64\DEBUG\CONTRASTSTRETCHING.ILK
E:\144022M - IMAGE PROCESSING\CONTRASTSTRETCHING\X64\DEBUG\CONTRASTSTRETCHING.EXE
E:\144022M - IMAGE PROCESSING\CONTRASTSTRETCHING\X64\DEBUG\CONTRASTSTRETCHING.PDB
^E:\144022M - IMAGE PROCESSING\EQUALIZATION\LOADIMAGE\X64\DEBUG\IM.OBJ
E:\144022M - IMAGE PROCESSING\EQUALIZATION\X64\DEBUG\CONTRASTSTRETCHING.EXE
E:\144022M - IMAGE PROCESSING\EQUALIZATION\X64\DEBUG\CONTRASTSTRETCHING.ILK
E:\144022M - IMAGE PROCESSING\EQUALIZATION\X64\DEBUG\CONTRASTSTRETCHING.PDB
