^E:\STUDENT DATA\144022M - IMAGE PROCESSING\MATRIX STRUCTURE\LOADIMAGE\X64\DEBUG\IM.OBJ
E:\STUDENT DATA\144022M - IMAGE PROCESSING\MATRIX STRUCTURE\X64\DEBUG\MATRIXSTRU.ILK
E:\STUDENT DATA\144022M - IMAGE PROCESSING\MATRIX STRUCTURE\X64\DEBUG\MATRIXSTRU.EXE
E:\STUDENT DATA\144022M - IMAGE PROCESSING\MATRIX STRUCTURE\X64\DEBUG\MATRIXSTRU.PDB
