^E:\FYP -BITBUCKET\PRINT-DEFECT-DETECTION-USING-MACHINE-VISION-FYP\TESTING COLOR RETREIVAL\LOADIMAGE\X64\DEBUG\IM.OBJ
E:\FYP -BITBUCKET\PRINT-DEFECT-DETECTION-USING-MACHINE-VISION-FYP\TESTING COLOR RETREIVAL\X64\DEBUG\LOADIMAGE.ILK
E:\FYP -BITBUCKET\PRINT-DEFECT-DETECTION-USING-MACHINE-VISION-FYP\TESTING COLOR RETREIVAL\X64\DEBUG\LOADIMAGE.EXE
E:\FYP -BITBUCKET\PRINT-DEFECT-DETECTION-USING-MACHINE-VISION-FYP\TESTING COLOR RETREIVAL\X64\DEBUG\LOADIMAGE.PDB
