^E:\FYP -BITBUCKET\PRINT-DEFECT-DETECTION-USING-MACHINE-VISION-FYP\SHAPE\LOADIMAGE\IM.CPP
E:\FYP -BITBUCKET\PRINT-DEFECT-DETECTION-USING-MACHINE-VISION-FYP\SHAPE\LOADIMAGE\X64\DEBUG\VC141.PDB
E:\FYP -BITBUCKET\PRINT-DEFECT-DETECTION-USING-MACHINE-VISION-FYP\SHAPE\LOADIMAGE\X64\DEBUG\VC141.IDB
E:\FYP -BITBUCKET\PRINT-DEFECT-DETECTION-USING-MACHINE-VISION-FYP\SHAPE\LOADIMAGE\X64\DEBUG\IM.OBJ
